<?xml version="1.0" encoding="UTF-8" standalone="no"?>
<!-- Created with Inkscape (http://www.inkscape.org/) -->

<svg
   width="217.21353"
   height="217.2135"
   viewBox="0 0 217.21353 217.2135"
   version="1.1"
   id="svg5"
   xml:space="preserve"
   xmlns:inkscape="http://www.inkscape.org/namespaces/inkscape"
   xmlns:sodipodi="http://sodipodi.sourceforge.net/DTD/sodipodi-0.dtd"
   xmlns:xlink="http://www.w3.org/1999/xlink"
   xmlns="http://www.w3.org/2000/svg"
   xmlns:svg="http://www.w3.org/2000/svg"><sodipodi:namedview
     id="namedview7"
     pagecolor="#ffffff"
     bordercolor="#000000"
     borderopacity="0.25"
     inkscape:showpageshadow="2"
     inkscape:pageopacity="0.0"
     inkscape:pagecheckerboard="0"
     inkscape:deskcolor="#d1d1d1"
     inkscape:document-units="px"
     showgrid="false" /><defs
     id="defs2"><linearGradient
       inkscape:collect="always"
       id="linearGradient10035"><stop
         style="stop-color:#ffffff;stop-opacity:0.91687322;"
         offset="0"
         id="stop10031" /><stop
         style="stop-color:#ffffff;stop-opacity:0;"
         offset="1"
         id="stop10033" /></linearGradient><linearGradient
       inkscape:collect="always"
       id="linearGradient10027"><stop
         style="stop-color:#ffffff;stop-opacity:1;"
         offset="0"
         id="stop10023" /><stop
         style="stop-color:#ffffff;stop-opacity:0;"
         offset="1"
         id="stop10025" /></linearGradient><linearGradient
       inkscape:collect="always"
       id="linearGradient9235"><stop
         style="stop-color:#000000;stop-opacity:0.30748087;"
         offset="0"
         id="stop9231" /><stop
         style="stop-color:#000000;stop-opacity:0;"
         offset="1"
         id="stop9233" /></linearGradient><linearGradient
       inkscape:collect="always"
       id="linearGradient8358"><stop
         style="stop-color:#ffffff;stop-opacity:1;"
         offset="0.19831632"
         id="stop8354" /><stop
         style="stop-color:#ffffff;stop-opacity:1;"
         offset="0.48473912"
         id="stop8366" /><stop
         style="stop-color:#bdbdbd;stop-opacity:1;"
         offset="1"
         id="stop8370" /></linearGradient><linearGradient
       inkscape:collect="always"
       id="linearGradient7624"><stop
         style="stop-color:#ffffff;stop-opacity:0;"
         offset="0"
         id="stop7620" /><stop
         style="stop-color:#ffffff;stop-opacity:0.09277406;"
         offset="0.99715042"
         id="stop7622" /></linearGradient><linearGradient
       inkscape:collect="always"
       id="linearGradient7466"><stop
         style="stop-color:#780102;stop-opacity:1;"
         offset="0"
         id="stop7462" /><stop
         style="stop-color:#f31309;stop-opacity:1;"
         offset="1"
         id="stop7464" /></linearGradient><linearGradient
       inkscape:collect="always"
       id="linearGradient301"><stop
         style="stop-color:#a90102;stop-opacity:1;"
         offset="0"
         id="stop297" /><stop
         style="stop-color:#f8463e;stop-opacity:1;"
         offset="1"
         id="stop299" /></linearGradient><linearGradient
       inkscape:collect="always"
       xlink:href="#linearGradient7466"
       id="linearGradient303"
       x1="434.50839"
       y1="435.25406"
       x2="275.98306"
       y2="282.53598"
       gradientUnits="userSpaceOnUse"
       gradientTransform="matrix(1.0475754,0,0,1.0475754,365.59341,-106.91622)" /><linearGradient
       inkscape:collect="always"
       xlink:href="#linearGradient301"
       id="linearGradient7459"
       gradientUnits="userSpaceOnUse"
       x1="434.50839"
       y1="435.25406"
       x2="275.98306"
       y2="282.53598"
       gradientTransform="translate(383.135,-89.319262)" /><linearGradient
       inkscape:collect="always"
       xlink:href="#linearGradient7624"
       id="linearGradient7611"
       gradientUnits="userSpaceOnUse"
       gradientTransform="translate(383.13499,-89.319278)"
       x1="318.9852"
       y1="360.33038"
       x2="420.39435"
       y2="437.27707" /><radialGradient
       inkscape:collect="always"
       xlink:href="#linearGradient9235"
       id="radialGradient9237"
       cx="697.63678"
       cy="225.20291"
       fx="697.63678"
       fy="225.20291"
       r="46.297874"
       gradientTransform="matrix(2.0557413,0,0,0.44874948,-1020.5371,298.62191)"
       gradientUnits="userSpaceOnUse" /><radialGradient
       inkscape:collect="always"
       xlink:href="#linearGradient10027"
       id="radialGradient10029"
       cx="740.76807"
       cy="178.73836"
       fx="740.76807"
       fy="178.73836"
       r="54.378021"
       gradientTransform="matrix(1,0,0,0.02624218,0,174.04787)"
       gradientUnits="userSpaceOnUse" /><radialGradient
       inkscape:collect="always"
       xlink:href="#linearGradient10035"
       id="radialGradient10037"
       cx="-249.22301"
       cy="648.71039"
       fx="-249.22301"
       fy="648.71039"
       r="29.757711"
       gradientTransform="matrix(1.3035168,0,0,0.04795389,66.611394,617.6022)"
       gradientUnits="userSpaceOnUse" /><radialGradient
       inkscape:collect="always"
       xlink:href="#linearGradient8358"
       id="radialGradient8362-6-76-0-7"
       cx="701.11731"
       cy="221.6738"
       fx="701.11731"
       fy="221.6738"
       r="13.995789"
       gradientUnits="userSpaceOnUse"
       gradientTransform="matrix(0.77368508,-0.79021833,0.75382073,0.73804899,742.35787,516.3679)" /><radialGradient
       inkscape:collect="always"
       xlink:href="#linearGradient8358"
       id="radialGradient8362-6-7-3-4-7-9"
       cx="701.11731"
       cy="221.6738"
       fx="701.11731"
       fy="221.6738"
       r="13.995789"
       gradientUnits="userSpaceOnUse"
       gradientTransform="matrix(0.77368508,-0.79021833,0.75382073,0.73804899,820.34944,594.35949)" /></defs><g
     inkscape:label="Layer 1"
     inkscape:groupmode="layer"
     id="layer1"
     transform="translate(-241.50717,-249.31439)"><g
       id="g10254"
       transform="translate(-63.509373,41.137825)"
       inkscape:export-filename="3.svg"
       inkscape:export-xdpi="96"
       inkscape:export-ydpi="96"><g
         id="g8618"
         transform="translate(-338.22338,36.227241)"><rect
           style="fill:url(#linearGradient303);fill-opacity:1;stroke-width:1.04758"
           id="rect281"
           width="217.21352"
           height="217.21352"
           x="643.23993"
           y="171.94933"
           ry="31.054216" /><rect
           style="fill:url(#linearGradient7459);fill-opacity:1"
           id="rect281-7"
           width="207.34882"
           height="207.34882"
           x="648.1723"
           y="176.88168"
           ry="49.816875" /><rect
           style="fill:url(#linearGradient7611);fill-opacity:1"
           id="rect281-7-5"
           width="207.34882"
           height="207.34882"
           x="648.1723"
           y="176.88168"
           ry="49.816875" /><ellipse
           style="fill:url(#radialGradient10029);fill-opacity:1;stroke:none;stroke-width:0.728761"
           id="path8488"
           cx="740.76807"
           cy="178.73836"
           rx="54.378021"
           ry="1.4269979" /><ellipse
           style="fill:url(#radialGradient10037);fill-opacity:1;stroke:none;stroke-width:0.615505"
           id="path8488-6"
           cx="-258.25497"
           cy="648.71039"
           rx="38.789677"
           ry="1.4269979"
           transform="rotate(-90)" /></g><ellipse
         style="fill:url(#radialGradient9237);fill-opacity:1;stroke:none;stroke-width:2.3229"
         id="path9229"
         cx="413.62332"
         cy="399.68158"
         rx="95.176453"
         ry="20.77615" /></g><g
       id="g11180"
       transform="translate(-1139.3998,194.49228)"><circle
         style="fill:url(#radialGradient8362-6-76-0-7);fill-opacity:1;stroke:none"
         id="path7626-8-5-61-7"
         cx="1450.5179"
         cy="124.43309"
         inkscape:transform-center-x="-3.9699165"
         inkscape:transform-center-y="3.4001365"
         r="13.995789" /><circle
         style="fill:url(#radialGradient8362-6-7-3-4-7-9);fill-opacity:1;stroke:none"
         id="path7626-8-2-3-4-1-6"
         cx="1528.5095"
         cy="202.42465"
         inkscape:transform-center-x="-3.9699165"
         inkscape:transform-center-y="3.4001365"
         r="13.995789" /></g></g></svg>
